DataClean
…
DataClean

data <- read.csv("Raleigh_Police_Incidents_(NIBRS).csv")

data <- data %>% 
  select(-OBJECTID, -GlobalID, -case_number)

freqs <- apply(data, 2, function(x) table(x))

data %>% 
  group_by(crime_category, crime_description) %>% 
  count()

## # A tibble: 130 x 3
## # Groups:   crime_category, crime_description [130]
##    crime_category     crime_description                                     n
##    <chr>              <chr>                                             <int>
##  1 ALL OTHER OFFENSES All Other/All Other Offenses                       9698
##  2 ALL OTHER OFFENSES ALL OTHER/ALL OTHER OFFENSES (COMM.THREATS, ETC.)     5
##  3 ALL OTHER OFFENSES All Other/Harassing Telephone Calls                1618
##  4 ALL OTHER OFFENSES All Other/Noise Ordinance Violation                 390
##  5 ALL OTHER OFFENSES All Other/Trespassing                              3586
##  6 ALL OTHER OFFENSES ALL OTHER/TRESPASSING                                 3
##  7 ALL OTHER OFFENSES Family Offenses/Nonviolent (eg: neglect)            592
##  8 ARSON              Arson                                               336
##  9 ASSAULT            Assault/Aggravated                                 5556
## 10 ASSAULT            Assault/Firearm                                      89
## #  with 120 more rows
…
data %>%
  group_by(reported_hour) %>%
  count()

## # A tibble: 24 x 2
## # Groups:   reported_hour [24]
##    reported_hour     n
##            <int> <int>
##  1             0 12700
##  2             1 11507
##  3             2 10256
##  4             3  7759
##  5             4  5379
##  6             5  3763
##  7             6  4987
##  8             7  9052
##  9             8 14515
## 10             9 16453
## #  with 14 more rows
…
